…
<center><b>Figure 3: The Total Delay Rate of Airlines<center><b>

From the barplot, we can see that Southwest Airlines (WN) and ExpressJet (EV) had the highest departure delay rate, US Airways (US) hds the lowest departure delay rate.

### (3) The departure delay rates of airlines in the week

Take a look at which day did the airline has the highest delay rate in the week:

**Table 4**

    ## # A tibble: 112 × 5
    ## # Groups:   DayOfWeek [7]
    ##    DayOfWeek UniqueCarrier count num_delay rate_delay
    ##        <int> <chr>         <int>     <dbl>      <dbl>
    ##  1         1 9E              184        38      0.207
    ##  2         1 AA             1433       450      0.314
    ##  3         1 B6              343       122      0.356
    ##  4         1 CO              716       233      0.325
    ##  5         1 DL              164        60      0.366
    ##  6         1 EV               55        29      0.527
    ##  7         1 F9              156        44      0.282
    ##  8         1 MQ              192        67      0.349
    ##  9         1 NW                6         0      0    
    ## 10         1 OH              217        83      0.382
    ## # … with 102 more rows
…
## Part B

Show the number of unique songs that appeared in the Billboard Top 100 on given year:

**Table 2**

    ## # A tibble: 62 × 2
    ##     year count
    ##    <int> <int>
    ##  1  1959   663
    ##  2  1960   700
    ##  3  1961   779
    ##  4  1962   768
    ##  5  1963   754
    ##  6  1964   811
    ##  7  1965   800
    ##  8  1966   832
    ##  9  1967   827
    ## 10  1968   772
    ## # … with 52 more rows
…
<center><b>Figure 1<center><b>

## Part C

Show the songs that appeared on the Billboard Top 100 for at least ten weeks:

**Table 3**

    ## # A tibble: 6,126 × 2
    ##    performer          count
    ##    <chr>              <int>
    ##  1 Elton John            52
    ##  2 Madonna               44
    ##  3 Kenny Chesney         42
    ##  4 Tim McGraw            39
    ##  5 Keith Urban           36
    ##  6 Stevie Wonder         36
    ##  7 Taylor Swift          35
    ##  8 Michael Jackson       34
    ##  9 Rod Stewart           33
    ## 10 The Rolling Stones    33
    ## # … with 6,116 more rows
…
